# defintion of signal samples mass points
#  MW1 : MN1 MN2 ...
#  MW2 : MN1 MN2 ...
#  ...

# regular grid:
2600: 100 200 400 600 800 1000 1200 1400 1600 1800 2000 2200 2400
2000: 100 200 400 600 800 1000 1200 1400 1600 1800
