# 2D Analysis. 8 TeV 2012 ABCD. signal 7 TeV (cs * 2) MWR=2000 MN=1400
#
imax 50 number of channels
jmax *   number of backgrounds ('*' = automatic)
kmax *   number of nuisance parameters (sources of systematical uncertainties)
------------
# channels, each with it's number of observed events 
bin b14-0 b14-1 b14-2 b14-3 b14-4 b14-5 b14-6 b14-7 b14-8 b14-9 b16-0 b16-1 b16-2 b16-3 b16-4 b16-5 b16-6 b16-7 b16-8 b16-9 b18-0 b18-1 b18-2 b18-3 b18-4 b18-5 b18-6 b18-7 b18-8 b18-9 b20-0 b20-1 b20-2 b20-3 b20-4 b20-5 b20-6 b20-7 b20-8 b20-9 b22-0 b22-1 b22-2 b22-3 b22-4 b22-5 b22-6 b22-7 b22-8 b22-9
observation 0 0 0 2 1 3 1 6 4 0 0 0 0 1 3 0 0 2 2 0 0 0 1 1 1 3 0 1 2 0 0 0 0 0 0 0 0 0 0 0 0 0 0 1 0 0 1 0 0 0
------------
# now we list the expected events for signal and all backgrounds in those three bins
# the second 'process' line must have a positive number for backgrounds, and 0 for signal
# for the signal, we normalize the yields to an hypothetical cross section of 1/pb
# so that we get an absolute limit in cross section in units of pb.
# then we list the independent sources of uncertainties, and give their effect (syst. error)
# on each process and bin
bin b14-0 b14-1 b14-2 b14-3 b14-4 b14-5 b14-6 b14-7 b14-8 b14-9 b16-0 b16-1 b16-2 b16-3 b16-4 b16-5 b16-6 b16-7 b16-8 b16-9 b18-0 b18-1 b18-2 b18-3 b18-4 b18-5 b18-6 b18-7 b18-8 b18-9 b20-0 b20-1 b20-2 b20-3 b20-4 b20-5 b20-6 b20-7 b20-8 b20-9 b22-0 b22-1 b22-2 b22-3 b22-4 b22-5 b22-6 b22-7 b22-8 b22-9 b14-0 b14-1 b14-2 b14-3 b14-4 b14-5 b14-6 b14-7 b14-8 b14-9 b16-0 b16-1 b16-2 b16-3 b16-4 b16-5 b16-6 b16-7 b16-8 b16-9 b18-0 b18-1 b18-2 b18-3 b18-4 b18-5 b18-6 b18-7 b18-8 b18-9 b20-0 b20-1 b20-2 b20-3 b20-4 b20-5 b20-6 b20-7 b20-8 b20-9 b22-0 b22-1 b22-2 b22-3 b22-4 b22-5 b22-6 b22-7 b22-8 b22-9
process    WR    WR    WR    WR    WR    WR    WR    WR    WR    WR    WR    WR    WR    WR    WR    WR    WR    WR    WR    WR  WR    WR    WR    WR   WR    WR    WR    WR    WR    WR  WR    WR    WR    WR    WR    WR    WR    WR    WR    WR  WR    WR    WR    WR    WR    WR    WR    WR    WR    WR   BG    BG    BG    BG    BG    BG    BG    BG    BG    BG   BG    BG    BG    BG    BG    BG    BG    BG    BG    BG   BG    BG    BG    BG    BG    BG    BG    BG    BG    BG  BG    BG    BG    BG    BG    BG    BG    BG    BG    BG  BG    BG    BG    BG    BG    BG    BG    BG    BG    BG 
process   0     0     0     0     0     0     0     0     0     0    0     0     0     0     0     0     0     0     0     0   0     0     0     0     0     0     0     0     0     0  0     0     0     0     0     0     0     0     0     0  0     0     0     0     0     0     0     0     0     0  1     1     1     1     1     1     1     1     1     1    1     1     1     1     1     1     1     1     1     1    1     1     1     1     1     1     1     1     1     1  1     1     1     1     1     1     1     1     1     1  1     1     1     1     1     1     1     1     1     1  
rate 0 0.017662 0.0706478 0.220774 0.494535 0.918422 1.35997 0.388563 0.0706478 0  0 0.00883098 0.132465 0.36207 0.574013 1.50127 3.92095 1.37763 0.167789 0.017662  0 0.0264929 0.158958 0.591675 1.31582 2.11943 7.55049 4.27419 0.379732 0.017662  0 0 0.0529859 0.185451 0.406225 0.803619 3.09084 1.45711 0.114803 0.00883098  0 0 0 0.00883098 0.0706478 0.0794788 0.141296 0.17662 0.00883098 0  0.0001 0.0678896 0.836813 1.4222 2.02615 2.62319 3.4621 3.45025 3.62502 0.592279 0.0001 0.0493591 0.47329 0.713085 0.820004 1.26201 1.47345 1.73764 1.66984 0.334546 0.0001 0.0303645 0.146375 0.447567 0.473316 0.601839 0.807607 0.735973 0.932066 0.218866 0.0001 0.00510053 0.0964484 0.209092 0.218096 0.342669 0.363616 0.422069 0.470186 0.0772683 0.0001 0.00255537 0.0764161 0.107658 0.0894367 0.149621 0.214232 0.215689 0.253764 0.0162564
------------
lumi    lnN   1.05   1.05     1.05     1.05      1.05    1.05    1.05    1.05     1.05    1.05    1.05   1.05     1.05     1.05      1.05    1.05    1.05    1.05     1.05    1.05    1.05   1.05     1.05     1.05      1.05    1.05    1.05    1.05     1.05    1.05    1.05   1.05     1.05     1.05      1.05    1.05    1.05    1.05     1.05    1.05    1.05   1.05     1.05     1.05      1.05    1.05    1.05    1.05     1.05    1.05    -     -        -        -         -       -       -       -        -        -     -     -        -        -         -       -       -       -        -        -     -     -        -        -         -       -       -       -        -        -    -     -        -        -         -       -       -       -        -        -     -     -        -        -         -       -       -       -        -        -  A lumi uncertainty, affects signal and MC-driven BG
eff     lnN   1.17    1.17    1.17     1.17      1.17    1.17    1.17    1.17     1.17    1.17   1.17    1.17    1.17     1.17      1.17    1.17    1.17    1.17     1.17    1.17   1.17    1.17    1.17     1.17      1.17    1.17    1.17    1.17     1.17    1.17 1.17    1.17    1.17     1.17      1.17    1.17    1.17    1.17     1.17    1.17  1.17    1.17    1.17     1.17      1.17    1.17    1.17    1.17     1.17    1.17  -      -       -        -         -       -       -       -        -       -  -      -       -        -         -       -       -       -        -       -     -      -       -        -         -       -       -       -        -       -    -      -       -        -         -       -       -       -        -       -    -      -       -        -         -       -       -       -        -       -  Efficiency
BGshape lnN     -      -        -         -        -        -       -       -       -       -   -      -        -         -        -        -       -       -       -       -    -      -        -         -        -        -       -       -       -       -    -      -        -         -        -        -       -      -       -       -      -      -        -         -        -        -       -       -       -       -   1.1   1.1   1.1   1.1   1.1   1.1   1.1   1.1   1.1   1.1  1.3    1.3     1.3       1.3       1.3      1.3     1.3     1.3     1.3     1.3   1.46   1.46    1.46      1.46      1.46     1.46    1.46    1.46    1.46    1.46   1.67   1.67    1.67      1.67      1.67     1.67    1.67    1.67    1.67    1.67   1.8   1.8   1.8   1.8   1.8   1.8   1.8   1.8   1.8   1.8  BG shape
